Removed Pin From Net: NetName=NetU2_27 Pin=U7-2
Removed Pin From Net: NetName=NetU2_28 Pin=U8-2
Added Component: Designator=P?(HDR1X4)
Add component. Clean all parameters for all variants
Add component (AddParameter): Name = "LatestRevisionDate"; Value = "17-Jul-2002"; VariantName = "[No Variations]"
Add component (AddParameter): Name = "LatestRevisionNote"; Value = "Re-released for DXP Platform."; VariantName = "[No Variations]"
Add component (AddParameter): Name = "Publisher"; Value = "Altium Limited"; VariantName = "[No Variations]"
Added Pin To Net: NetName=GND Pin=P?-1
Added Pin To Net: NetName=VCC Pin=P?-2
Added Pin To Net: NetName=Coller Pin=P?-3
Added Pin To Net: NetName=Coller Pin=U8-2
Added Net: Name=Coller
Added Pin To Net: NetName=Mixer Pin=P?-4
Added Pin To Net: NetName=Mixer Pin=U7-2
Added Net: Name=Mixer
Added Member To Class: ClassName=highVoltageModule Member=Component P? To control board
